-- Merging decision tree log ---
manifest
ADDED from C:\Users\kaloy\StudioProjects\KaloyanBaltiev\GoRide2.0\app\src\main\AndroidManifest.xml:2:1-43:12
INJECTED from C:\Users\kaloy\StudioProjects\KaloyanBaltiev\GoRide2.0\app\src\main\AndroidManifest.xml:2:1-43:12
INJECTED from C:\Users\kaloy\StudioProjects\KaloyanBaltiev\GoRide2.0\app\src\main\AndroidManifest.xml:2:1-43:12
INJECTED from C:\Users\kaloy\StudioProjects\KaloyanBaltiev\GoRide2.0\app\src\main\AndroidManifest.xml:2:1-43:12
MERGED from [com.android.support:appcompat-v7:26.1.0] C:\Users\kaloy\.gradle\caches\transforms-1\files-1.1\appcompat-v7-26.1.0.aar\dc1be46565d94c093a7bdcff3049e5d1\AndroidManifest.xml:17:1-31:12
MERGED from [com.android.support.constraint:constraint-layout:1.1.3] C:\Users\kaloy\.gradle\caches\transforms-1\files-1.1\constraint-layout-1.1.3.aar\21f7e323fcd487ff44bdda0ee55a481d\AndroidManifest.xml:2:1-11:12
MERGED from [com.google.android.gms:play-services-maps:16.0.0] C:\Users\kaloy\.gradle\caches\transforms-1\files-1.1\play-services-maps-16.0.0.aar\ff492f7650acfbc1e74b8255bc2e0b58\AndroidManifest.xml:17:1-32:12
MERGED from [com.android.support:animated-vector-drawable:26.1.0] C:\Users\kaloy\.gradle\caches\transforms-1\files-1.1\animated-vector-drawable-26.1.0.aar\abbb133bbc6a60b8e327087790220f8e\AndroidManifest.xml:17:1-28:12
MERGED from [com.android.support:support-vector-drawable:26.1.0] C:\Users\kaloy\.gradle\caches\transforms-1\files-1.1\support-vector-drawable-26.1.0.aar\bdd2bf48e39c1c042f3e0bb550a4e26b\AndroidManifest.xml:17:1-28:12
MERGED from [com.google.android.gms:play-services-base:16.0.1] C:\Users\kaloy\.gradle\caches\transforms-1\files-1.1\play-services-base-16.0.1.aar\6c2559c53733e612f3f290d23395e4b9\AndroidManifest.xml:17:1-29:12
MERGED from [com.google.android.gms:play-services-tasks:16.0.1] C:\Users\kaloy\.gradle\caches\transforms-1\files-1.1\play-services-tasks-16.0.1.aar\f567fe524a429cad57f176c015fd8109\AndroidManifest.xml:2:1-9:12
MERGED from [com.google.android.gms:play-services-basement:16.0.1] C:\Users\kaloy\.gradle\caches\transforms-1\files-1.1\play-services-basement-16.0.1.aar\2b72179ecb6b3e6c911eacd80dd60009\AndroidManifest.xml:17:1-28:12
MERGED from [com.android.support:support-v4:26.1.0] C:\Users\kaloy\.gradle\caches\transforms-1\files-1.1\support-v4-26.1.0.aar\f2e33564b19825955716bbeb751e705e\AndroidManifest.xml:17:1-31:12
MERGED from [com.android.support:support-media-compat:26.1.0] C:\Users\kaloy\.gradle\caches\transforms-1\files-1.1\support-media-compat-26.1.0.aar\4e0a1cda2a9ee3e3dadb69dd20e70e8a\AndroidManifest.xml:17:1-31:12
MERGED from [com.android.support:support-fragment:26.1.0] C:\Users\kaloy\.gradle\caches\transforms-1\files-1.1\support-fragment-26.1.0.aar\0d4b6558c7d1936f80a35aafa99912b9\AndroidManifest.xml:17:1-31:12
MERGED from [com.android.support:support-core-utils:26.1.0] C:\Users\kaloy\.gradle\caches\transforms-1\files-1.1\support-core-utils-26.1.0.aar\7d5f240cf125f4ee3f88503fd685aebb\AndroidManifest.xml:17:1-31:12
MERGED from [com.android.support:support-core-ui:26.1.0] C:\Users\kaloy\.gradle\caches\transforms-1\files-1.1\support-core-ui-26.1.0.aar\8b2c3cc2a2d2dfe9d3fd7495b60bedb4\AndroidManifest.xml:17:1-31:12
MERGED from [com.android.support:support-compat:26.1.0] C:\Users\kaloy\.gradle\caches\transforms-1\files-1.1\support-compat-26.1.0.aar\78ba21bd7644b25d104c1a0f81f1316e\AndroidManifest.xml:17:1-31:12
MERGED from [android.arch.lifecycle:runtime:1.0.0] C:\Users\kaloy\.gradle\caches\transforms-1\files-1.1\runtime-1.0.0.aar\5d02b4fc5d1d4819955469312095ba9f\AndroidManifest.xml:17:1-30:12
INJECTED from C:\Users\kaloy\StudioProjects\KaloyanBaltiev\GoRide2.0\app\src\main\AndroidManifest.xml:2:1-43:12
INJECTED from C:\Users\kaloy\StudioProjects\KaloyanBaltiev\GoRide2.0\app\src\main\AndroidManifest.xml:2:1-43:12
INJECTED from C:\Users\kaloy\StudioProjects\KaloyanBaltiev\GoRide2.0\app\src\main\AndroidManifest.xml:2:1-43:12
	package
		ADDED from C:\Users\kaloy\StudioProjects\KaloyanBaltiev\GoRide2.0\app\src\main\AndroidManifest.xml:3:5-40
		INJECTED from C:\Users\kaloy\StudioProjects\KaloyanBaltiev\GoRide2.0\app\src\main\AndroidManifest.xml
		INJECTED from C:\Users\kaloy\StudioProjects\KaloyanBaltiev\GoRide2.0\app\src\main\AndroidManifest.xml
	android:versionName
		INJECTED from C:\Users\kaloy\StudioProjects\KaloyanBaltiev\GoRide2.0\app\src\main\AndroidManifest.xml
		ADDED from C:\Users\kaloy\StudioProjects\KaloyanBaltiev\GoRide2.0\app\src\main\AndroidManifest.xml:2:1-43:12
		INJECTED from C:\Users\kaloy\StudioProjects\KaloyanBaltiev\GoRide2.0\app\src\main\AndroidManifest.xml
	android:versionCode
		INJECTED from C:\Users\kaloy\StudioProjects\KaloyanBaltiev\GoRide2.0\app\src\main\AndroidManifest.xml
		ADDED from C:\Users\kaloy\StudioProjects\KaloyanBaltiev\GoRide2.0\app\src\main\AndroidManifest.xml:2:1-43:12
		INJECTED from C:\Users\kaloy\StudioProjects\KaloyanBaltiev\GoRide2.0\app\src\main\AndroidManifest.xml
	xmlns:android
		ADDED from C:\Users\kaloy\StudioProjects\KaloyanBaltiev\GoRide2.0\app\src\main\AndroidManifest.xml:2:11-69
uses-permission#android.permission.ACCESS_COARSE_LOCATION
ADDED from C:\Users\kaloy\StudioProjects\KaloyanBaltiev\GoRide2.0\app\src\main\AndroidManifest.xml:5:5-81
	android:name
		ADDED from C:\Users\kaloy\StudioProjects\KaloyanBaltiev\GoRide2.0\app\src\main\AndroidManifest.xml:5:22-78
uses-permission#android.permission.ACCESS_FINE_LOCATION
ADDED from C:\Users\kaloy\StudioProjects\KaloyanBaltiev\GoRide2.0\app\src\main\AndroidManifest.xml:6:5-79
	android:name
		ADDED from C:\Users\kaloy\StudioProjects\KaloyanBaltiev\GoRide2.0\app\src\main\AndroidManifest.xml:6:22-76
uses-permission#android.permission.INTERNET
ADDED from C:\Users\kaloy\StudioProjects\KaloyanBaltiev\GoRide2.0\app\src\main\AndroidManifest.xml:7:5-67
MERGED from [com.google.android.gms:play-services-maps:16.0.0] C:\Users\kaloy\.gradle\caches\transforms-1\files-1.1\play-services-maps-16.0.0.aar\ff492f7650acfbc1e74b8255bc2e0b58\AndroidManifest.xml:24:5-67
MERGED from [com.google.android.gms:play-services-maps:16.0.0] C:\Users\kaloy\.gradle\caches\transforms-1\files-1.1\play-services-maps-16.0.0.aar\ff492f7650acfbc1e74b8255bc2e0b58\AndroidManifest.xml:24:5-67
	android:name
		ADDED from C:\Users\kaloy\StudioProjects\KaloyanBaltiev\GoRide2.0\app\src\main\AndroidManifest.xml:7:22-64
application
ADDED from C:\Users\kaloy\StudioProjects\KaloyanBaltiev\GoRide2.0\app\src\main\AndroidManifest.xml:9:5-41:19
MERGED from [com.android.support:appcompat-v7:26.1.0] C:\Users\kaloy\.gradle\caches\transforms-1\files-1.1\appcompat-v7-26.1.0.aar\dc1be46565d94c093a7bdcff3049e5d1\AndroidManifest.xml:25:5-29:19
MERGED from [com.android.support:appcompat-v7:26.1.0] C:\Users\kaloy\.gradle\caches\transforms-1\files-1.1\appcompat-v7-26.1.0.aar\dc1be46565d94c093a7bdcff3049e5d1\AndroidManifest.xml:25:5-29:19
MERGED from [com.android.support.constraint:constraint-layout:1.1.3] C:\Users\kaloy\.gradle\caches\transforms-1\files-1.1\constraint-layout-1.1.3.aar\21f7e323fcd487ff44bdda0ee55a481d\AndroidManifest.xml:9:5-20
MERGED from [com.android.support.constraint:constraint-layout:1.1.3] C:\Users\kaloy\.gradle\caches\transforms-1\files-1.1\constraint-layout-1.1.3.aar\21f7e323fcd487ff44bdda0ee55a481d\AndroidManifest.xml:9:5-20
MERGED from [com.google.android.gms:play-services-maps:16.0.0] C:\Users\kaloy\.gradle\caches\transforms-1\files-1.1\play-services-maps-16.0.0.aar\ff492f7650acfbc1e74b8255bc2e0b58\AndroidManifest.xml:30:5-20
MERGED from [com.google.android.gms:play-services-maps:16.0.0] C:\Users\kaloy\.gradle\caches\transforms-1\files-1.1\play-services-maps-16.0.0.aar\ff492f7650acfbc1e74b8255bc2e0b58\AndroidManifest.xml:30:5-20
MERGED from [com.android.support:animated-vector-drawable:26.1.0] C:\Users\kaloy\.gradle\caches\transforms-1\files-1.1\animated-vector-drawable-26.1.0.aar\abbb133bbc6a60b8e327087790220f8e\AndroidManifest.xml:22:5-26:19
MERGED from [com.android.support:animated-vector-drawable:26.1.0] C:\Users\kaloy\.gradle\caches\transforms-1\files-1.1\animated-vector-drawable-26.1.0.aar\abbb133bbc6a60b8e327087790220f8e\AndroidManifest.xml:22:5-26:19
MERGED from [com.android.support:support-vector-drawable:26.1.0] C:\Users\kaloy\.gradle\caches\transforms-1\files-1.1\support-vector-drawable-26.1.0.aar\bdd2bf48e39c1c042f3e0bb550a4e26b\AndroidManifest.xml:22:5-26:19
MERGED from [com.android.support:support-vector-drawable:26.1.0] C:\Users\kaloy\.gradle\caches\transforms-1\files-1.1\support-vector-drawable-26.1.0.aar\bdd2bf48e39c1c042f3e0bb550a4e26b\AndroidManifest.xml:22:5-26:19
MERGED from [com.google.android.gms:play-services-base:16.0.1] C:\Users\kaloy\.gradle\caches\transforms-1\files-1.1\play-services-base-16.0.1.aar\6c2559c53733e612f3f290d23395e4b9\AndroidManifest.xml:22:5-27:19
MERGED from [com.google.android.gms:play-services-base:16.0.1] C:\Users\kaloy\.gradle\caches\transforms-1\files-1.1\play-services-base-16.0.1.aar\6c2559c53733e612f3f290d23395e4b9\AndroidManifest.xml:22:5-27:19
MERGED from [com.google.android.gms:play-services-tasks:16.0.1] C:\Users\kaloy\.gradle\caches\transforms-1\files-1.1\play-services-tasks-16.0.1.aar\f567fe524a429cad57f176c015fd8109\AndroidManifest.xml:7:5-20
MERGED from [com.google.android.gms:play-services-tasks:16.0.1] C:\Users\kaloy\.gradle\caches\transforms-1\files-1.1\play-services-tasks-16.0.1.aar\f567fe524a429cad57f176c015fd8109\AndroidManifest.xml:7:5-20
MERGED from [com.google.android.gms:play-services-basement:16.0.1] C:\Users\kaloy\.gradle\caches\transforms-1\files-1.1\play-services-basement-16.0.1.aar\2b72179ecb6b3e6c911eacd80dd60009\AndroidManifest.xml:22:5-26:19
MERGED from [com.google.android.gms:play-services-basement:16.0.1] C:\Users\kaloy\.gradle\caches\transforms-1\files-1.1\play-services-basement-16.0.1.aar\2b72179ecb6b3e6c911eacd80dd60009\AndroidManifest.xml:22:5-26:19
MERGED from [com.android.support:support-v4:26.1.0] C:\Users\kaloy\.gradle\caches\transforms-1\files-1.1\support-v4-26.1.0.aar\f2e33564b19825955716bbeb751e705e\AndroidManifest.xml:25:5-29:19
MERGED from [com.android.support:support-v4:26.1.0] C:\Users\kaloy\.gradle\caches\transforms-1\files-1.1\support-v4-26.1.0.aar\f2e33564b19825955716bbeb751e705e\AndroidManifest.xml:25:5-29:19
MERGED from [com.android.support:support-media-compat:26.1.0] C:\Users\kaloy\.gradle\caches\transforms-1\files-1.1\support-media-compat-26.1.0.aar\4e0a1cda2a9ee3e3dadb69dd20e70e8a\AndroidManifest.xml:25:5-29:19
MERGED from [com.android.support:support-media-compat:26.1.0] C:\Users\kaloy\.gradle\caches\transforms-1\files-1.1\support-media-compat-26.1.0.aar\4e0a1cda2a9ee3e3dadb69dd20e70e8a\AndroidManifest.xml:25:5-29:19
MERGED from [com.android.support:support-fragment:26.1.0] C:\Users\kaloy\.gradle\caches\transforms-1\files-1.1\support-fragment-26.1.0.aar\0d4b6558c7d1936f80a35aafa99912b9\AndroidManifest.xml:25:5-29:19
MERGED from [com.android.support:support-fragment:26.1.0] C:\Users\kaloy\.gradle\caches\transforms-1\files-1.1\support-fragment-26.1.0.aar\0d4b6558c7d1936f80a35aafa99912b9\AndroidManifest.xml:25:5-29:19
MERGED from [com.android.support:support-core-utils:26.1.0] C:\Users\kaloy\.gradle\caches\transforms-1\files-1.1\support-core-utils-26.1.0.aar\7d5f240cf125f4ee3f88503fd685aebb\AndroidManifest.xml:25:5-29:19
MERGED from [com.android.support:support-core-utils:26.1.0] C:\Users\kaloy\.gradle\caches\transforms-1\files-1.1\support-core-utils-26.1.0.aar\7d5f240cf125f4ee3f88503fd685aebb\AndroidManifest.xml:25:5-29:19
MERGED from [com.android.support:support-core-ui:26.1.0] C:\Users\kaloy\.gradle\caches\transforms-1\files-1.1\support-core-ui-26.1.0.aar\8b2c3cc2a2d2dfe9d3fd7495b60bedb4\AndroidManifest.xml:25:5-29:19
MERGED from [com.android.support:support-core-ui:26.1.0] C:\Users\kaloy\.gradle\caches\transforms-1\files-1.1\support-core-ui-26.1.0.aar\8b2c3cc2a2d2dfe9d3fd7495b60bedb4\AndroidManifest.xml:25:5-29:19
MERGED from [com.android.support:support-compat:26.1.0] C:\Users\kaloy\.gradle\caches\transforms-1\files-1.1\support-compat-26.1.0.aar\78ba21bd7644b25d104c1a0f81f1316e\AndroidManifest.xml:25:5-29:19
MERGED from [com.android.support:support-compat:26.1.0] C:\Users\kaloy\.gradle\caches\transforms-1\files-1.1\support-compat-26.1.0.aar\78ba21bd7644b25d104c1a0f81f1316e\AndroidManifest.xml:25:5-29:19
MERGED from [android.arch.lifecycle:runtime:1.0.0] C:\Users\kaloy\.gradle\caches\transforms-1\files-1.1\runtime-1.0.0.aar\5d02b4fc5d1d4819955469312095ba9f\AndroidManifest.xml:24:5-28:19
MERGED from [android.arch.lifecycle:runtime:1.0.0] C:\Users\kaloy\.gradle\caches\transforms-1\files-1.1\runtime-1.0.0.aar\5d02b4fc5d1d4819955469312095ba9f\AndroidManifest.xml:24:5-28:19
	android:supportsRtl
		ADDED from C:\Users\kaloy\StudioProjects\KaloyanBaltiev\GoRide2.0\app\src\main\AndroidManifest.xml:14:9-35
	android:label
		ADDED from C:\Users\kaloy\StudioProjects\KaloyanBaltiev\GoRide2.0\app\src\main\AndroidManifest.xml:12:9-41
	android:roundIcon
		ADDED from C:\Users\kaloy\StudioProjects\KaloyanBaltiev\GoRide2.0\app\src\main\AndroidManifest.xml:13:9-54
	android:icon
		ADDED from C:\Users\kaloy\StudioProjects\KaloyanBaltiev\GoRide2.0\app\src\main\AndroidManifest.xml:11:9-43
	android:allowBackup
		ADDED from C:\Users\kaloy\StudioProjects\KaloyanBaltiev\GoRide2.0\app\src\main\AndroidManifest.xml:10:9-35
	android:theme
		ADDED from C:\Users\kaloy\StudioProjects\KaloyanBaltiev\GoRide2.0\app\src\main\AndroidManifest.xml:15:9-40
activity#com.example.kala.goride20.MainActivity
ADDED from C:\Users\kaloy\StudioProjects\KaloyanBaltiev\GoRide2.0\app\src\main\AndroidManifest.xml:16:9-22:20
	android:name
		ADDED from C:\Users\kaloy\StudioProjects\KaloyanBaltiev\GoRide2.0\app\src\main\AndroidManifest.xml:16:19-47
intent-filter#action:name:android.intent.action.MAIN+category:name:android.intent.category.LAUNCHER
ADDED from C:\Users\kaloy\StudioProjects\KaloyanBaltiev\GoRide2.0\app\src\main\AndroidManifest.xml:17:13-21:29
action#android.intent.action.MAIN
ADDED from C:\Users\kaloy\StudioProjects\KaloyanBaltiev\GoRide2.0\app\src\main\AndroidManifest.xml:18:17-69
	android:name
		ADDED from C:\Users\kaloy\StudioProjects\KaloyanBaltiev\GoRide2.0\app\src\main\AndroidManifest.xml:18:25-66
category#android.intent.category.LAUNCHER
ADDED from C:\Users\kaloy\StudioProjects\KaloyanBaltiev\GoRide2.0\app\src\main\AndroidManifest.xml:20:17-77
	android:name
		ADDED from C:\Users\kaloy\StudioProjects\KaloyanBaltiev\GoRide2.0\app\src\main\AndroidManifest.xml:20:27-74
service#com.example.kala.goride20.GPS_Service
ADDED from C:\Users\kaloy\StudioProjects\KaloyanBaltiev\GoRide2.0\app\src\main\AndroidManifest.xml:24:9-48
	android:name
		ADDED from C:\Users\kaloy\StudioProjects\KaloyanBaltiev\GoRide2.0\app\src\main\AndroidManifest.xml:24:18-45
meta-data#com.google.android.geo.API_KEY
ADDED from C:\Users\kaloy\StudioProjects\KaloyanBaltiev\GoRide2.0\app\src\main\AndroidManifest.xml:33:9-35:55
	android:value
		ADDED from C:\Users\kaloy\StudioProjects\KaloyanBaltiev\GoRide2.0\app\src\main\AndroidManifest.xml:35:13-52
	android:name
		ADDED from C:\Users\kaloy\StudioProjects\KaloyanBaltiev\GoRide2.0\app\src\main\AndroidManifest.xml:34:13-58
activity#com.example.kala.goride20.MapsActivity
ADDED from C:\Users\kaloy\StudioProjects\KaloyanBaltiev\GoRide2.0\app\src\main\AndroidManifest.xml:37:9-39:59
	android:label
		ADDED from C:\Users\kaloy\StudioProjects\KaloyanBaltiev\GoRide2.0\app\src\main\AndroidManifest.xml:39:13-56
	android:name
		ADDED from C:\Users\kaloy\StudioProjects\KaloyanBaltiev\GoRide2.0\app\src\main\AndroidManifest.xml:38:13-41
activity#com.example.kala.goride20.LibraryOfMapsActivity
ADDED from C:\Users\kaloy\StudioProjects\KaloyanBaltiev\GoRide2.0\app\src\main\AndroidManifest.xml:40:9-68
	android:name
		ADDED from C:\Users\kaloy\StudioProjects\KaloyanBaltiev\GoRide2.0\app\src\main\AndroidManifest.xml:40:19-56
uses-sdk
INJECTED from C:\Users\kaloy\StudioProjects\KaloyanBaltiev\GoRide2.0\app\src\main\AndroidManifest.xml reason: use-sdk injection requested
INJECTED from C:\Users\kaloy\StudioProjects\KaloyanBaltiev\GoRide2.0\app\src\main\AndroidManifest.xml
INJECTED from C:\Users\kaloy\StudioProjects\KaloyanBaltiev\GoRide2.0\app\src\main\AndroidManifest.xml
MERGED from [com.android.support:appcompat-v7:26.1.0] C:\Users\kaloy\.gradle\caches\transforms-1\files-1.1\appcompat-v7-26.1.0.aar\dc1be46565d94c093a7bdcff3049e5d1\AndroidManifest.xml:21:5-23:78
MERGED from [com.android.support:appcompat-v7:26.1.0] C:\Users\kaloy\.gradle\caches\transforms-1\files-1.1\appcompat-v7-26.1.0.aar\dc1be46565d94c093a7bdcff3049e5d1\AndroidManifest.xml:21:5-23:78
MERGED from [com.android.support.constraint:constraint-layout:1.1.3] C:\Users\kaloy\.gradle\caches\transforms-1\files-1.1\constraint-layout-1.1.3.aar\21f7e323fcd487ff44bdda0ee55a481d\AndroidManifest.xml:5:5-7:41
MERGED from [com.android.support.constraint:constraint-layout:1.1.3] C:\Users\kaloy\.gradle\caches\transforms-1\files-1.1\constraint-layout-1.1.3.aar\21f7e323fcd487ff44bdda0ee55a481d\AndroidManifest.xml:5:5-7:41
MERGED from [com.google.android.gms:play-services-maps:16.0.0] C:\Users\kaloy\.gradle\caches\transforms-1\files-1.1\play-services-maps-16.0.0.aar\ff492f7650acfbc1e74b8255bc2e0b58\AndroidManifest.xml:20:5-44
MERGED from [com.google.android.gms:play-services-maps:16.0.0] C:\Users\kaloy\.gradle\caches\transforms-1\files-1.1\play-services-maps-16.0.0.aar\ff492f7650acfbc1e74b8255bc2e0b58\AndroidManifest.xml:20:5-44
MERGED from [com.android.support:animated-vector-drawable:26.1.0] C:\Users\kaloy\.gradle\caches\transforms-1\files-1.1\animated-vector-drawable-26.1.0.aar\abbb133bbc6a60b8e327087790220f8e\AndroidManifest.xml:20:5-44
MERGED from [com.android.support:animated-vector-drawable:26.1.0] C:\Users\kaloy\.gradle\caches\transforms-1\files-1.1\animated-vector-drawable-26.1.0.aar\abbb133bbc6a60b8e327087790220f8e\AndroidManifest.xml:20:5-44
MERGED from [com.android.support:support-vector-drawable:26.1.0] C:\Users\kaloy\.gradle\caches\transforms-1\files-1.1\support-vector-drawable-26.1.0.aar\bdd2bf48e39c1c042f3e0bb550a4e26b\AndroidManifest.xml:20:5-44
MERGED from [com.android.support:support-vector-drawable:26.1.0] C:\Users\kaloy\.gradle\caches\transforms-1\files-1.1\support-vector-drawable-26.1.0.aar\bdd2bf48e39c1c042f3e0bb550a4e26b\AndroidManifest.xml:20:5-44
MERGED from [com.google.android.gms:play-services-base:16.0.1] C:\Users\kaloy\.gradle\caches\transforms-1\files-1.1\play-services-base-16.0.1.aar\6c2559c53733e612f3f290d23395e4b9\AndroidManifest.xml:20:5-44
MERGED from [com.google.android.gms:play-services-base:16.0.1] C:\Users\kaloy\.gradle\caches\transforms-1\files-1.1\play-services-base-16.0.1.aar\6c2559c53733e612f3f290d23395e4b9\AndroidManifest.xml:20:5-44
MERGED from [com.google.android.gms:play-services-tasks:16.0.1] C:\Users\kaloy\.gradle\caches\transforms-1\files-1.1\play-services-tasks-16.0.1.aar\f567fe524a429cad57f176c015fd8109\AndroidManifest.xml:5:5-44
MERGED from [com.google.android.gms:play-services-tasks:16.0.1] C:\Users\kaloy\.gradle\caches\transforms-1\files-1.1\play-services-tasks-16.0.1.aar\f567fe524a429cad57f176c015fd8109\AndroidManifest.xml:5:5-44
MERGED from [com.google.android.gms:play-services-basement:16.0.1] C:\Users\kaloy\.gradle\caches\transforms-1\files-1.1\play-services-basement-16.0.1.aar\2b72179ecb6b3e6c911eacd80dd60009\AndroidManifest.xml:20:5-44
MERGED from [com.google.android.gms:play-services-basement:16.0.1] C:\Users\kaloy\.gradle\caches\transforms-1\files-1.1\play-services-basement-16.0.1.aar\2b72179ecb6b3e6c911eacd80dd60009\AndroidManifest.xml:20:5-44
MERGED from [com.android.support:support-v4:26.1.0] C:\Users\kaloy\.gradle\caches\transforms-1\files-1.1\support-v4-26.1.0.aar\f2e33564b19825955716bbeb751e705e\AndroidManifest.xml:21:5-23:54
MERGED from [com.android.support:support-v4:26.1.0] C:\Users\kaloy\.gradle\caches\transforms-1\files-1.1\support-v4-26.1.0.aar\f2e33564b19825955716bbeb751e705e\AndroidManifest.xml:21:5-23:54
MERGED from [com.android.support:support-media-compat:26.1.0] C:\Users\kaloy\.gradle\caches\transforms-1\files-1.1\support-media-compat-26.1.0.aar\4e0a1cda2a9ee3e3dadb69dd20e70e8a\AndroidManifest.xml:21:5-23:63
MERGED from [com.android.support:support-media-compat:26.1.0] C:\Users\kaloy\.gradle\caches\transforms-1\files-1.1\support-media-compat-26.1.0.aar\4e0a1cda2a9ee3e3dadb69dd20e70e8a\AndroidManifest.xml:21:5-23:63
MERGED from [com.android.support:support-fragment:26.1.0] C:\Users\kaloy\.gradle\caches\transforms-1\files-1.1\support-fragment-26.1.0.aar\0d4b6558c7d1936f80a35aafa99912b9\AndroidManifest.xml:21:5-23:60
MERGED from [com.android.support:support-fragment:26.1.0] C:\Users\kaloy\.gradle\caches\transforms-1\files-1.1\support-fragment-26.1.0.aar\0d4b6558c7d1936f80a35aafa99912b9\AndroidManifest.xml:21:5-23:60
MERGED from [com.android.support:support-core-utils:26.1.0] C:\Users\kaloy\.gradle\caches\transforms-1\files-1.1\support-core-utils-26.1.0.aar\7d5f240cf125f4ee3f88503fd685aebb\AndroidManifest.xml:21:5-23:61
MERGED from [com.android.support:support-core-utils:26.1.0] C:\Users\kaloy\.gradle\caches\transforms-1\files-1.1\support-core-utils-26.1.0.aar\7d5f240cf125f4ee3f88503fd685aebb\AndroidManifest.xml:21:5-23:61
MERGED from [com.android.support:support-core-ui:26.1.0] C:\Users\kaloy\.gradle\caches\transforms-1\files-1.1\support-core-ui-26.1.0.aar\8b2c3cc2a2d2dfe9d3fd7495b60bedb4\AndroidManifest.xml:21:5-23:58
MERGED from [com.android.support:support-core-ui:26.1.0] C:\Users\kaloy\.gradle\caches\transforms-1\files-1.1\support-core-ui-26.1.0.aar\8b2c3cc2a2d2dfe9d3fd7495b60bedb4\AndroidManifest.xml:21:5-23:58
MERGED from [com.android.support:support-compat:26.1.0] C:\Users\kaloy\.gradle\caches\transforms-1\files-1.1\support-compat-26.1.0.aar\78ba21bd7644b25d104c1a0f81f1316e\AndroidManifest.xml:21:5-23:58
MERGED from [com.android.support:support-compat:26.1.0] C:\Users\kaloy\.gradle\caches\transforms-1\files-1.1\support-compat-26.1.0.aar\78ba21bd7644b25d104c1a0f81f1316e\AndroidManifest.xml:21:5-23:58
MERGED from [android.arch.lifecycle:runtime:1.0.0] C:\Users\kaloy\.gradle\caches\transforms-1\files-1.1\runtime-1.0.0.aar\5d02b4fc5d1d4819955469312095ba9f\AndroidManifest.xml:20:5-22:41
MERGED from [android.arch.lifecycle:runtime:1.0.0] C:\Users\kaloy\.gradle\caches\transforms-1\files-1.1\runtime-1.0.0.aar\5d02b4fc5d1d4819955469312095ba9f\AndroidManifest.xml:20:5-22:41
INJECTED from C:\Users\kaloy\StudioProjects\KaloyanBaltiev\GoRide2.0\app\src\main\AndroidManifest.xml
INJECTED from C:\Users\kaloy\StudioProjects\KaloyanBaltiev\GoRide2.0\app\src\main\AndroidManifest.xml
	tools:overrideLibrary
		ADDED from [com.android.support:appcompat-v7:26.1.0] C:\Users\kaloy\.gradle\caches\transforms-1\files-1.1\appcompat-v7-26.1.0.aar\dc1be46565d94c093a7bdcff3049e5d1\AndroidManifest.xml:23:9-75
	android:targetSdkVersion
		INJECTED from C:\Users\kaloy\StudioProjects\KaloyanBaltiev\GoRide2.0\app\src\main\AndroidManifest.xml
		ADDED from C:\Users\kaloy\StudioProjects\KaloyanBaltiev\GoRide2.0\app\src\main\AndroidManifest.xml
		INJECTED from C:\Users\kaloy\StudioProjects\KaloyanBaltiev\GoRide2.0\app\src\main\AndroidManifest.xml
	android:minSdkVersion
		INJECTED from C:\Users\kaloy\StudioProjects\KaloyanBaltiev\GoRide2.0\app\src\main\AndroidManifest.xml
		ADDED from C:\Users\kaloy\StudioProjects\KaloyanBaltiev\GoRide2.0\app\src\main\AndroidManifest.xml
		INJECTED from C:\Users\kaloy\StudioProjects\KaloyanBaltiev\GoRide2.0\app\src\main\AndroidManifest.xml
meta-data#android.support.VERSION
ADDED from [com.android.support:appcompat-v7:26.1.0] C:\Users\kaloy\.gradle\caches\transforms-1\files-1.1\appcompat-v7-26.1.0.aar\dc1be46565d94c093a7bdcff3049e5d1\AndroidManifest.xml:26:9-28:38
MERGED from [com.android.support:animated-vector-drawable:26.1.0] C:\Users\kaloy\.gradle\caches\transforms-1\files-1.1\animated-vector-drawable-26.1.0.aar\abbb133bbc6a60b8e327087790220f8e\AndroidManifest.xml:23:9-25:38
MERGED from [com.android.support:animated-vector-drawable:26.1.0] C:\Users\kaloy\.gradle\caches\transforms-1\files-1.1\animated-vector-drawable-26.1.0.aar\abbb133bbc6a60b8e327087790220f8e\AndroidManifest.xml:23:9-25:38
MERGED from [com.android.support:support-vector-drawable:26.1.0] C:\Users\kaloy\.gradle\caches\transforms-1\files-1.1\support-vector-drawable-26.1.0.aar\bdd2bf48e39c1c042f3e0bb550a4e26b\AndroidManifest.xml:23:9-25:38
MERGED from [com.android.support:support-vector-drawable:26.1.0] C:\Users\kaloy\.gradle\caches\transforms-1\files-1.1\support-vector-drawable-26.1.0.aar\bdd2bf48e39c1c042f3e0bb550a4e26b\AndroidManifest.xml:23:9-25:38
MERGED from [com.android.support:support-v4:26.1.0] C:\Users\kaloy\.gradle\caches\transforms-1\files-1.1\support-v4-26.1.0.aar\f2e33564b19825955716bbeb751e705e\AndroidManifest.xml:26:9-28:38
MERGED from [com.android.support:support-v4:26.1.0] C:\Users\kaloy\.gradle\caches\transforms-1\files-1.1\support-v4-26.1.0.aar\f2e33564b19825955716bbeb751e705e\AndroidManifest.xml:26:9-28:38
MERGED from [com.android.support:support-media-compat:26.1.0] C:\Users\kaloy\.gradle\caches\transforms-1\files-1.1\support-media-compat-26.1.0.aar\4e0a1cda2a9ee3e3dadb69dd20e70e8a\AndroidManifest.xml:26:9-28:38
MERGED from [com.android.support:support-media-compat:26.1.0] C:\Users\kaloy\.gradle\caches\transforms-1\files-1.1\support-media-compat-26.1.0.aar\4e0a1cda2a9ee3e3dadb69dd20e70e8a\AndroidManifest.xml:26:9-28:38
MERGED from [com.android.support:support-fragment:26.1.0] C:\Users\kaloy\.gradle\caches\transforms-1\files-1.1\support-fragment-26.1.0.aar\0d4b6558c7d1936f80a35aafa99912b9\AndroidManifest.xml:26:9-28:38
MERGED from [com.android.support:support-fragment:26.1.0] C:\Users\kaloy\.gradle\caches\transforms-1\files-1.1\support-fragment-26.1.0.aar\0d4b6558c7d1936f80a35aafa99912b9\AndroidManifest.xml:26:9-28:38
MERGED from [com.android.support:support-core-utils:26.1.0] C:\Users\kaloy\.gradle\caches\transforms-1\files-1.1\support-core-utils-26.1.0.aar\7d5f240cf125f4ee3f88503fd685aebb\AndroidManifest.xml:26:9-28:38
MERGED from [com.android.support:support-core-utils:26.1.0] C:\Users\kaloy\.gradle\caches\transforms-1\files-1.1\support-core-utils-26.1.0.aar\7d5f240cf125f4ee3f88503fd685aebb\AndroidManifest.xml:26:9-28:38
MERGED from [com.android.support:support-core-ui:26.1.0] C:\Users\kaloy\.gradle\caches\transforms-1\files-1.1\support-core-ui-26.1.0.aar\8b2c3cc2a2d2dfe9d3fd7495b60bedb4\AndroidManifest.xml:26:9-28:38
MERGED from [com.android.support:support-core-ui:26.1.0] C:\Users\kaloy\.gradle\caches\transforms-1\files-1.1\support-core-ui-26.1.0.aar\8b2c3cc2a2d2dfe9d3fd7495b60bedb4\AndroidManifest.xml:26:9-28:38
MERGED from [com.android.support:support-compat:26.1.0] C:\Users\kaloy\.gradle\caches\transforms-1\files-1.1\support-compat-26.1.0.aar\78ba21bd7644b25d104c1a0f81f1316e\AndroidManifest.xml:26:9-28:38
MERGED from [com.android.support:support-compat:26.1.0] C:\Users\kaloy\.gradle\caches\transforms-1\files-1.1\support-compat-26.1.0.aar\78ba21bd7644b25d104c1a0f81f1316e\AndroidManifest.xml:26:9-28:38
	android:value
		ADDED from [com.android.support:appcompat-v7:26.1.0] C:\Users\kaloy\.gradle\caches\transforms-1\files-1.1\appcompat-v7-26.1.0.aar\dc1be46565d94c093a7bdcff3049e5d1\AndroidManifest.xml:28:13-35
	android:name
		ADDED from [com.android.support:appcompat-v7:26.1.0] C:\Users\kaloy\.gradle\caches\transforms-1\files-1.1\appcompat-v7-26.1.0.aar\dc1be46565d94c093a7bdcff3049e5d1\AndroidManifest.xml:27:13-51
uses-permission#android.permission.ACCESS_NETWORK_STATE
ADDED from [com.google.android.gms:play-services-maps:16.0.0] C:\Users\kaloy\.gradle\caches\transforms-1\files-1.1\play-services-maps-16.0.0.aar\ff492f7650acfbc1e74b8255bc2e0b58\AndroidManifest.xml:23:5-79
	android:name
		ADDED from [com.google.android.gms:play-services-maps:16.0.0] C:\Users\kaloy\.gradle\caches\transforms-1\files-1.1\play-services-maps-16.0.0.aar\ff492f7650acfbc1e74b8255bc2e0b58\AndroidManifest.xml:23:22-76
uses-feature#0x00020000
ADDED from [com.google.android.gms:play-services-maps:16.0.0] C:\Users\kaloy\.gradle\caches\transforms-1\files-1.1\play-services-maps-16.0.0.aar\ff492f7650acfbc1e74b8255bc2e0b58\AndroidManifest.xml:26:5-28:35
	android:glEsVersion
		ADDED from [com.google.android.gms:play-services-maps:16.0.0] C:\Users\kaloy\.gradle\caches\transforms-1\files-1.1\play-services-maps-16.0.0.aar\ff492f7650acfbc1e74b8255bc2e0b58\AndroidManifest.xml:27:9-41
	android:required
		ADDED from [com.google.android.gms:play-services-maps:16.0.0] C:\Users\kaloy\.gradle\caches\transforms-1\files-1.1\play-services-maps-16.0.0.aar\ff492f7650acfbc1e74b8255bc2e0b58\AndroidManifest.xml:28:9-32
activity#com.google.android.gms.common.api.GoogleApiActivity
ADDED from [com.google.android.gms:play-services-base:16.0.1] C:\Users\kaloy\.gradle\caches\transforms-1\files-1.1\play-services-base-16.0.1.aar\6c2559c53733e612f3f290d23395e4b9\AndroidManifest.xml:23:9-26:75
	android:exported
		ADDED from [com.google.android.gms:play-services-base:16.0.1] C:\Users\kaloy\.gradle\caches\transforms-1\files-1.1\play-services-base-16.0.1.aar\6c2559c53733e612f3f290d23395e4b9\AndroidManifest.xml:25:13-37
	android:theme
		ADDED from [com.google.android.gms:play-services-base:16.0.1] C:\Users\kaloy\.gradle\caches\transforms-1\files-1.1\play-services-base-16.0.1.aar\6c2559c53733e612f3f290d23395e4b9\AndroidManifest.xml:26:13-72
	android:name
		ADDED from [com.google.android.gms:play-services-base:16.0.1] C:\Users\kaloy\.gradle\caches\transforms-1\files-1.1\play-services-base-16.0.1.aar\6c2559c53733e612f3f290d23395e4b9\AndroidManifest.xml:24:13-79
meta-data#com.google.android.gms.version
ADDED from [com.google.android.gms:play-services-basement:16.0.1] C:\Users\kaloy\.gradle\caches\transforms-1\files-1.1\play-services-basement-16.0.1.aar\2b72179ecb6b3e6c911eacd80dd60009\AndroidManifest.xml:23:9-25:69
	android:value
		ADDED from [com.google.android.gms:play-services-basement:16.0.1] C:\Users\kaloy\.gradle\caches\transforms-1\files-1.1\play-services-basement-16.0.1.aar\2b72179ecb6b3e6c911eacd80dd60009\AndroidManifest.xml:25:13-66
	android:name
		ADDED from [com.google.android.gms:play-services-basement:16.0.1] C:\Users\kaloy\.gradle\caches\transforms-1\files-1.1\play-services-basement-16.0.1.aar\2b72179ecb6b3e6c911eacd80dd60009\AndroidManifest.xml:24:13-58
meta-data#android.arch.lifecycle.VERSION
ADDED from [android.arch.lifecycle:runtime:1.0.0] C:\Users\kaloy\.gradle\caches\transforms-1\files-1.1\runtime-1.0.0.aar\5d02b4fc5d1d4819955469312095ba9f\AndroidManifest.xml:25:9-27:47
	android:value
		ADDED from [android.arch.lifecycle:runtime:1.0.0] C:\Users\kaloy\.gradle\caches\transforms-1\files-1.1\runtime-1.0.0.aar\5d02b4fc5d1d4819955469312095ba9f\AndroidManifest.xml:27:13-44
	android:name
		ADDED from [android.arch.lifecycle:runtime:1.0.0] C:\Users\kaloy\.gradle\caches\transforms-1\files-1.1\runtime-1.0.0.aar\5d02b4fc5d1d4819955469312095ba9f\AndroidManifest.xml:26:13-58
